…
Observations are the level of items in orders by user. There are user /
order variables – user ID, order ID, order day, and order hour. There
are also item variables – name, aisle, department, and some numeric
codes.

How many aisles, and which are most items from?

``` r
instacart %>% 
    count(aisle) %>% 
    arrange(desc(n))
```

    ## # A tibble: 134 x 2
    ##    aisle                              n
    ##    <chr>                          <int>
    ##  1 fresh vegetables              150609
    ##  2 fresh fruits                  150473
    ##  3 packaged vegetables fruits     78493
    ##  4 yogurt                         55240
    ##  5 packaged cheese                41699
    ##  6 water seltzer sparkling water  36617
    ##  7 milk                           32644
    ##  8 chips pretzels                 31269
    ##  9 soy lactosefree                26240
    ## 10 bread                          23635
    ## # ... with 124 more rows
…
Observations for temperature, precipitation, and snowfall are set to
reasonable units.

``` r
noaa_data
```

    ## # A tibble: 2,595,176 x 9
    ##    id          year  month day    prcp  snow  snwd  tmax  tmin
    ##    <chr>       <chr> <chr> <chr> <dbl> <int> <int> <dbl> <dbl>
    ##  1 US1NYAB0001 2007  11    01       NA    NA    NA    NA    NA
    ##  2 US1NYAB0001 2007  11    02       NA    NA    NA    NA    NA
    ##  3 US1NYAB0001 2007  11    03       NA    NA    NA    NA    NA
    ##  4 US1NYAB0001 2007  11    04       NA    NA    NA    NA    NA
    ##  5 US1NYAB0001 2007  11    05       NA    NA    NA    NA    NA
    ##  6 US1NYAB0001 2007  11    06       NA    NA    NA    NA    NA
    ##  7 US1NYAB0001 2007  11    07       NA    NA    NA    NA    NA
    ##  8 US1NYAB0001 2007  11    08       NA    NA    NA    NA    NA
    ##  9 US1NYAB0001 2007  11    09       NA    NA    NA    NA    NA
    ## 10 US1NYAB0001 2007  11    10       NA    NA    NA    NA    NA
    ## # ... with 2,595,166 more rows
…
